{
  "accessors": [
    {
      "bufferView": 2,
      "componentType": 5126,
      "count": 23636,
      "max": [
        24.007400512695312,
        -4.409949779510498,
        3.9643099308013916
      ],
      "min": [
        -116.19400024414062,
        -73.98370361328125,
        -3.8273599147796631
      ],
      "type": "VEC3"
    },
    {
      "bufferView": 2,
      "byteOffset": 283632,
      "componentType": 5126,
      "count": 23636,
      "max": [
        0.99996614456176758,
        0.9999701976776123,
        1
      ],
      "min": [
        -0.99999910593032837,
        -0.99996685981750488,
        -0.99999749660491943
      ],
      "type": "VEC3"
    },
    {
      "bufferView": 1,
      "componentType": 5126,
      "count": 23636,
      "max": [
        0.99169397354125977,
        0.99193400144577026
      ],
      "min": [
        0.008069000206887722,
        0.0083010001108050346
      ],
      "type": "VEC2"
    },
    {
      "bufferView": 0,
      "componentType": 5125,
      "count": 118158,
      "max": [
        23635
      ],
      "min": [
        0
      ],
      "type": "SCALAR"
    },
    {
      "bufferView": 2,
      "byteOffset": 567264,
      "componentType": 5126,
      "count": 25006,
      "max": [
        20.436000823974609,
        -5.2886152267456055,
        3.5878698825836182
      ],
      "min": [
        -115.63200378417969,
        -73.677597045898438,
        -3.948199987411499
      ],
      "type": "VEC3"
    },
    {
      "bufferView": 2,
      "byteOffset": 867336,
      "componentType": 5126,
      "count": 25006,
      "max": [
        0.99991297721862793,
        0.99998307228088379,
        0.99999964237213135
      ],
      "min": [
        -0.99988800287246704,
        -0.99996703863143921,
        -0.99998253583908081
      ],
      "type": "VEC3"
    },
    {
      "bufferView": 1,
      "byteOffset": 189088,
      "componentType": 5126,
      "count": 25006,
      "max": [
        0.991690993309021,
        0.99187898635864258
      ],
      "min": [
        0.0080660004168748856,
        0.0085829999297857285
      ],
      "type": "VEC2"
    },
    {
      "bufferView": 0,
      "byteOffset": 472632,
      "componentType": 5125,
      "count": 127944,
      "max": [
        25005
      ],
      "min": [
        0
      ],
      "type": "SCALAR"
    },
    {
      "bufferView": 2,
      "byteOffset": 1167408,
      "componentType": 5126,
      "count": 24335,
      "max": [
        23.635799407958984,
        -3.8968000411987305,
        3.8793098926544189
      ],
      "min": [
        -118.01000213623047,
        -74.041900634765625,
        -4.4045000076293945
      ],
      "type": "VEC3"
    },
    {
      "bufferView": 2,
      "byteOffset": 1459428,
      "componentType": 5126,
      "count": 24335,
      "max": [
        0.99998235702514648,
        0.99991464614868164,
        1
      ],
      "min": [
        -1,
        -0.99999386072158813,
        -0.99989801645278931
      ],
      "type": "VEC3"
    },
    {
      "bufferView": 1,
      "byteOffset": 389136,
      "componentType": 5126,
      "count": 24335,
      "max": [
        0.99159198999404907,
        0.99190700054168701
      ],
      "min": [
        0.008069000206887722,
        0.0083849998190999031
      ],
      "type": "VEC2"
    },
    {
      "bufferView": 0,
      "byteOffset": 984408,
      "componentType": 5125,
      "count": 123900,
      "max": [
        24334
      ],
      "min": [
        0
      ],
      "type": "SCALAR"
    },
    {
      "bufferView": 2,
      "byteOffset": 1751448,
      "componentType": 5126,
      "count": 23932,
      "max": [
        24.091499328613281,
        -5.2030801773071289,
        3.8314399719238281
      ],
      "min": [
        -118.18699645996094,
        -74.685699462890625,
        -3.8974800109863281
      ],
      "type": "VEC3"
    },
    {
      "bufferView": 2,
      "byteOffset": 2038632,
      "componentType": 5126,
      "count": 23932,
      "max": [
        0.99991399049758911,
        0.99996012449264526,
        1
      ],
      "min": [
        -0.99998611211776733,
        -0.99999809265136719,
        -0.9999847412109375
      ],
      "type": "VEC3"
    },
    {
      "bufferView": 1,
      "byteOffset": 583816,
      "componentType": 5126,
      "count": 23932,
      "max": [
        0.99168998003005981,
        0.99193102121353149
      ],
      "min": [
        0.0080620003864169121,
        0.0084030004218220711
      ],
      "type": "VEC2"
    },
    {
      "bufferView": 0,
      "byteOffset": 1480008,
      "componentType": 5125,
      "count": 119127,
      "max": [
        23931
      ],
      "min": [
        0
      ],
      "type": "SCALAR"
    },
    {
      "bufferView": 2,
      "byteOffset": 2325816,
      "componentType": 5126,
      "count": 23698,
      "max": [
        22.477500915527344,
        -4.4945898056030273,
        3.824160099029541
      ],
      "min": [
        -116.74700164794922,
        -74.314002990722656,
        -3.9622399806976318
      ],
      "type": "VEC3"
    },
    {
      "bufferView": 2,
      "byteOffset": 2610192,
      "componentType": 5126,
      "count": 23698,
      "max": [
        0.99990570545196533,
        0.99980604648590088,
        1
      ],
      "min": [
        -0.99994909763336182,
        -0.99996370077133179,
        -0.99999958276748657
      ],
      "type": "VEC3"
    },
    {
      "bufferView": 1,
      "byteOffset": 775272,
      "componentType": 5126,
      "count": 23698,
      "max": [
        0.99164801836013794,
        0.99191802740097046
      ],
      "min": [
        0.008067999966442585,
        0.0083729997277259827
      ],
      "type": "VEC2"
    },
    {
      "bufferView": 0,
      "byteOffset": 1956516,
      "componentType": 5125,
      "count": 119619,
      "max": [
        23697
      ],
      "min": [
        0
      ],
      "type": "SCALAR"
    },
    {
      "bufferView": 2,
      "byteOffset": 2894568,
      "componentType": 5126,
      "count": 22570,
      "max": [
        20.912300109863281,
        -6.0182600021362305,
        3.5077800750732422
      ],
      "min": [
        -118.05100250244141,
        -73.679397583007812,
        -3.8485300540924072
      ],
      "type": "VEC3"
    },
    {
      "bufferView": 2,
      "byteOffset": 3165408,
      "componentType": 5126,
      "count": 22570,
      "max": [
        0.99997407197952271,
        0.99997317790985107,
        0.99999988079071045
      ],
      "min": [
        -0.99992960691452026,
        -0.99992847442626953,
        -0.99999368190765381
      ],
      "type": "VEC3"
    },
    {
      "bufferView": 1,
      "byteOffset": 964856,
      "componentType": 5126,
      "count": 22570,
      "max": [
        0.99158000946044922,
        0.99193799495697021
      ],
      "min": [
        0.0080819996073842049,
        0.008329000324010849
      ],
      "type": "VEC2"
    },
    {
      "bufferView": 0,
      "byteOffset": 2434992,
      "componentType": 5125,
      "count": 111462,
      "max": [
        22569
      ],
      "min": [
        0
      ],
      "type": "SCALAR"
    },
    {
      "bufferView": 2,
      "byteOffset": 3436248,
      "componentType": 5126,
      "count": 23751,
      "max": [
        24.355499267578125,
        -4.5181198120117188,
        3.8107600212097168
      ],
      "min": [
        -117.39700317382812,
        -73.763397216796875,
        -3.6917800903320312
      ],
      "type": "VEC3"
    },
    {
      "bufferView": 2,
      "byteOffset": 3721260,
      "componentType": 5126,
      "count": 23751,
      "max": [
        0.99999487400054932,
        0.99996602535247803,
        1
      ],
      "min": [
        -0.99997437000274658,
        -0.99998623132705688,
        -0.99998354911804199
      ],
      "type": "VEC3"
    },
    {
      "bufferView": 1,
      "byteOffset": 1145416,
      "componentType": 5126,
      "count": 23751,
      "max": [
        0.99162799119949341,
        0.99191397428512573
      ],
      "min": [
        0.0080580003559589386,
        0.0083670001477003098
      ],
      "type": "VEC2"
    },
    {
      "bufferView": 0,
      "byteOffset": 2880840,
      "componentType": 5125,
      "count": 117543,
      "max": [
        23750
      ],
      "min": [
        0
      ],
      "type": "SCALAR"
    },
    {
      "bufferView": 2,
      "byteOffset": 4006272,
      "componentType": 5126,
      "count": 23756,
      "max": [
        23.186700820922852,
        -5.349219799041748,
        3.8918900489807129
      ],
      "min": [
        -117.197998046875,
        -73.188499450683594,
        -3.6861600875854492
      ],
      "type": "VEC3"
    },
    {
      "bufferView": 2,
      "byteOffset": 4291344,
      "componentType": 5126,
      "count": 23756,
      "max": [
        0.99999254941940308,
        0.99999964237213135,
        1
      ],
      "min": [
        -0.99997538328170776,
        -0.99999600648880005,
        -0.99992436170578003
      ],
      "type": "VEC3"
    },
    {
      "bufferView": 1,
      "byteOffset": 1335424,
      "componentType": 5126,
      "count": 23756,
      "max": [
        0.99165999889373779,
        0.99192500114440918
      ],
      "min": [
        0.0080850003287196159,
        0.0083339996635913849
      ],
      "type": "VEC2"
    },
    {
      "bufferView": 0,
      "byteOffset": 3351012,
      "componentType": 5125,
      "count": 117957,
      "max": [
        23755
      ],
      "min": [
        0
      ],
      "type": "SCALAR"
    },
    {
      "bufferView": 2,
      "byteOffset": 4576416,
      "componentType": 5126,
      "count": 22635,
      "max": [
        23.780300140380859,
        -4.1005401611328125,
        3.8273301124572754
      ],
      "min": [
        -117.84300231933594,
        -73.541099548339844,
        -3.8215000629425049
      ],
      "type": "VEC3"
    },
    {
      "bufferView": 2,
      "byteOffset": 4848036,
      "componentType": 5126,
      "count": 22635,
      "max": [
        0.99993038177490234,
        0.99993205070495605,
        0.99999988079071045
      ],
      "min": [
        -0.99995929002761841,
        -0.9999879002571106,
        -0.99996554851531982
      ],
      "type": "VEC3"
    },
    {
      "bufferView": 1,
      "byteOffset": 1525472,
      "componentType": 5126,
      "count": 22635,
      "max": [
        0.99168401956558228,
        0.99193102121353149
      ],
      "min": [
        0.0080819996073842049,
        0.0083389999344944954
      ],
      "type": "VEC2"
    },
    {
      "bufferView": 0,
      "byteOffset": 3822840,
      "componentType": 5125,
      "count": 108741,
      "max": [
        22634
      ],
      "min": [
        0
      ],
      "type": "SCALAR"
    },
    {
      "bufferView": 2,
      "byteOffset": 5119656,
      "componentType": 5126,
      "count": 26994,
      "max": [
        23.851699829101562,
        -4.8777599334716797,
        4.1283102035522461
      ],
      "min": [
        -117.26000213623047,
        -72.831199645996094,
        -3.9963700771331787
      ],
      "type": "VEC3"
    },
    {
      "bufferView": 2,
      "byteOffset": 5443584,
      "componentType": 5126,
      "count": 26994,
      "max": [
        0.99996978044509888,
        0.99999278783798218,
        0.99999988079071045
      ],
      "min": [
        -1,
        -0.99998611211776733,
        -0.99997377395629883
      ],
      "type": "VEC3"
    },
    {
      "bufferView": 1,
      "byteOffset": 1706552,
      "componentType": 5126,
      "count": 26994,
      "max": [
        0.9915500283241272,
        0.99193698167800903
      ],
      "min": [
        0.0080739995464682579,
        0.0083039999008178711
      ],
      "type": "VEC2"
    },
    {
      "bufferView": 0,
      "byteOffset": 4257804,
      "componentType": 5125,
      "count": 132351,
      "max": [
        26993
      ],
      "min": [
        0
      ],
      "type": "SCALAR"
    },
    {
      "bufferView": 2,
      "byteOffset": 5767512,
      "componentType": 5126,
      "count": 25061,
      "max": [
        23.848199844360352,
        -4.5565800666809082,
        3.833590030670166
      ],
      "min": [
        -117.56600189208984,
        -74.972396850585938,
        -3.9834499359130859
      ],
      "type": "VEC3"
    },
    {
      "bufferView": 2,
      "byteOffset": 6068244,
      "componentType": 5126,
      "count": 25061,
      "max": [
        0.99999487400054932,
        0.99982911348342896,
        0.9999997615814209
      ],
      "min": [
        -0.9999769926071167,
        -0.99999886751174927,
        -0.99997377395629883
      ],
      "type": "VEC3"
    },
    {
      "bufferView": 1,
      "byteOffset": 1922504,
      "componentType": 5126,
      "count": 25061,
      "max": [
        0.9916989803314209,
        0.9919319748878479
      ],
      "min": [
        0.0080829998478293419,
        0.0086719999089837074
      ],
      "type": "VEC2"
    },
    {
      "bufferView": 0,
      "byteOffset": 4787208,
      "componentType": 5125,
      "count": 120126,
      "max": [
        25060
      ],
      "min": [
        0
      ],
      "type": "SCALAR"
    },
    {
      "bufferView": 2,
      "byteOffset": 6368976,
      "componentType": 5126,
      "count": 25102,
      "max": [
        23.799200057983398,
        -4.372459888458252,
        3.9664599895477295
      ],
      "min": [
        -116.96700286865234,
        -74.350303649902344,
        -4.5997600555419922
      ],
      "type": "VEC3"
    },
    {
      "bufferView": 2,
      "byteOffset": 6670200,
      "componentType": 5126,
      "count": 25102,
      "max": [
        0.99992865324020386,
        0.99998825788497925,
        1
      ],
      "min": [
        -0.99997925758361816,
        -0.99999785423278809,
        -0.99997687339782715
      ],
      "type": "VEC3"
    },
    {
      "bufferView": 1,
      "byteOffset": 2122992,
      "componentType": 5126,
      "count": 25102,
      "max": [
        0.99164402484893799,
        0.99190002679824829
      ],
      "min": [
        0.0080850003287196159,
        0.0083140004426240921
      ],
      "type": "VEC2"
    },
    {
      "bufferView": 0,
      "byteOffset": 5267712,
      "componentType": 5125,
      "count": 117363,
      "max": [
        25101
      ],
      "min": [
        0
      ],
      "type": "SCALAR"
    },
    {
      "bufferView": 2,
      "byteOffset": 6971424,
      "componentType": 5126,
      "count": 26503,
      "max": [
        24.35930061340332,
        -4.0473299026489258,
        3.9518001079559326
      ],
      "min": [
        -116.59500122070312,
        -74.633697509765625,
        -4.5457301139831543
      ],
      "type": "VEC3"
    },
    {
      "bufferView": 2,
      "byteOffset": 7289460,
      "componentType": 5126,
      "count": 26503,
      "max": [
        0.99998730421066284,
        0.99996763467788696,
        0.99999988079071045
      ],
      "min": [
        -0.99980831146240234,
        -0.9999968409538269,
        -0.99998927116394043
      ],
      "type": "VEC3"
    },
    {
      "bufferView": 1,
      "byteOffset": 2323808,
      "componentType": 5126,
      "count": 26503,
      "max": [
        0.99167799949645996,
        0.99194097518920898
      ],
      "min": [
        0.0080709997564554214,
        0.0083550000563263893
      ],
      "type": "VEC2"
    },
    {
      "bufferView": 0,
      "byteOffset": 5737164,
      "componentType": 5125,
      "count": 118089,
      "max": [
        26502
      ],
      "min": [
        0
      ],
      "type": "SCALAR"
    },
    {
      "bufferView": 2,
      "byteOffset": 7607496,
      "componentType": 5126,
      "count": 12121,
      "max": [
        24.224199295043945,
        -3.9945800304412842,
        3.8974399566650391
      ],
      "min": [
        -117.39199829101562,
        -74.55670166015625,
        -4.2815098762512207
      ],
      "type": "VEC3"
    },
    {
      "bufferView": 2,
      "byteOffset": 7752948,
      "componentType": 5126,
      "count": 12121,
      "max": [
        0.9998016357421875,
        0.99996387958526611,
        0.99999785423278809
      ],
      "min": [
        -0.99983549118041992,
        -0.99995946884155273,
        -0.99996936321258545
      ],
      "type": "VEC3"
    },
    {
      "bufferView": 1,
      "byteOffset": 2535832,
      "componentType": 5126,
      "count": 12121,
      "max": [
        0.99118000268936157,
        0.99163597822189331
      ],
      "min": [
        0.008328000083565712,
        0.0088809998705983162
      ],
      "type": "VEC2"
    },
    {
      "bufferView": 0,
      "byteOffset": 6209520,
      "componentType": 5125,
      "count": 51525,
      "max": [
        12120
      ],
      "min": [
        0
      ],
      "type": "SCALAR"
    },
    {
      "bufferView": 2,
      "byteOffset": 7898400,
      "componentType": 5126,
      "count": 4909,
      "max": [
        24.005800247192383,
        -5.3543901443481445,
        4.195000171661377
      ],
      "min": [
        -115.66999816894531,
        -74.334098815917969,
        -3.82135009765625
      ],
      "type": "VEC3"
    },
    {
      "bufferView": 2,
      "byteOffset": 7957308,
      "componentType": 5126,
      "count": 4909,
      "max": [
        0.99988877773284912,
        0.99997252225875854,
        0.99999547004699707
      ],
      "min": [
        -0.99997925758361816,
        -0.99999737739562988,
        -0.99934488534927368
      ],
      "type": "VEC3"
    },
    {
      "bufferView": 1,
      "byteOffset": 2632800,
      "componentType": 5126,
      "count": 4909,
      "max": [
        0.9901689887046814,
        0.99112999439239502
      ],
      "min": [
        0.0089260004460811615,
        0.0099719995632767677
      ],
      "type": "VEC2"
    },
    {
      "bufferView": 0,
      "byteOffset": 6415620,
      "componentType": 5125,
      "count": 20283,
      "max": [
        4908
      ],
      "min": [
        0
      ],
      "type": "SCALAR"
    },
    {
      "bufferView": 2,
      "byteOffset": 8016216,
      "componentType": 5126,
      "count": 4755,
      "max": [
        23.842599868774414,
        -7.490570068359375,
        3.9765799045562744
      ],
      "min": [
        -117.29100036621094,
        -74.843597412109375,
        -4.0424299240112305
      ],
      "type": "VEC3"
    },
    {
      "bufferView": 2,
      "byteOffset": 8073276,
      "componentType": 5126,
      "count": 4755,
      "max": [
        0.99995201826095581,
        0.99983447790145874,
        0.99999797344207764
      ],
      "min": [
        -0.99979138374328613,
        -0.99996775388717651,
        -0.99997377395629883
      ],
      "type": "VEC3"
    },
    {
      "bufferView": 1,
      "byteOffset": 2672072,
      "componentType": 5126,
      "count": 4755,
      "max": [
        0.99014699459075928,
        0.99120801687240601
      ],
      "min": [
        0.0089589999988675117,
        0.0099010001868009567
      ],
      "type": "VEC2"
    },
    {
      "bufferView": 0,
      "byteOffset": 6496752,
      "componentType": 5125,
      "count": 18534,
      "max": [
        4754
      ],
      "min": [
        0
      ],
      "type": "SCALAR"
    },
    {
      "bufferView": 2,
      "byteOffset": 8130336,
      "componentType": 5126,
      "count": 5082,
      "max": [
        23.861600875854492,
        -4.9985599517822266,
        3.8293099403381348
      ],
      "min": [
        -117.84799957275391,
        -74.646598815917969,
        -3.9816200733184814
      ],
      "type": "VEC3"
    },
    {
      "bufferView": 2,
      "byteOffset": 8191320,
      "componentType": 5126,
      "count": 5082,
      "max": [
        0.99986952543258667,
        0.99997997283935547,
        0.99999898672103882
      ],
      "min": [
        -0.99999862909317017,
        -0.99988991022109985,
        -0.99997574090957642
      ],
      "type": "VEC3"
    },
    {
      "bufferView": 1,
      "byteOffset": 2710112,
      "componentType": 5126,
      "count": 5082,
      "max": [
        0.99009901285171509,
        0.99116301536560059
      ],
      "min": [
        0.0088630001991987228,
        0.0097989998757839203
      ],
      "type": "VEC2"
    },
    {
      "bufferView": 0,
      "byteOffset": 6570888,
      "componentType": 5125,
      "count": 19137,
      "max": [
        5081
      ],
      "min": [
        0
      ],
      "type": "SCALAR"
    },
    {
      "bufferView": 2,
      "byteOffset": 8252304,
      "componentType": 5126,
      "count": 4884,
      "max": [
        24.158700942993164,
        -4.1150298118591309,
        3.7320699691772461
      ],
      "min": [
        -117.83000183105469,
        -74.496803283691406,
        -4.1630702018737793
      ],
      "type": "VEC3"
    },
    {
      "bufferView": 2,
      "byteOffset": 8310912,
      "componentType": 5126,
      "count": 4884,
      "max": [
        0.99986952543258667,
        0.99990856647491455,
        0.99998962879180908
      ],
      "min": [
        -0.99995273351669312,
        -0.99995976686477661,
        -0.99992847442626953
      ],
      "type": "VEC3"
    },
    {
      "bufferView": 1,
      "byteOffset": 2750768,
      "componentType": 5126,
      "count": 4884,
      "max": [
        0.99121099710464478,
        0.99120199680328369
      ],
      "min": [
        0.0088769998401403427,
        0.009782000444829464
      ],
      "type": "VEC2"
    },
    {
      "bufferView": 0,
      "byteOffset": 6647436,
      "componentType": 5125,
      "count": 16098,
      "max": [
        4883
      ],
      "min": [
        0
      ],
      "type": "SCALAR"
    },
    {
      "bufferView": 2,
      "byteOffset": 8369520,
      "componentType": 5126,
      "count": 1687,
      "max": [
        24.283599853515625,
        -4.3156499862670898,
        3.6791698932647705
      ],
      "min": [
        -117.48200225830078,
        -73.614402770996094,
        -3.7110500335693359
      ],
      "type": "VEC3"
    },
    {
      "bufferView": 2,
      "byteOffset": 8389764,
      "componentType": 5126,
      "count": 1687,
      "max": [
        1,
        0.99982947111129761,
        0.99999845027923584
      ],
      "min": [
        -0.99982357025146484,
        -0.99995648860931396,
        -0.99983865022659302
      ],
      "type": "VEC3"
    },
    {
      "bufferView": 1,
      "byteOffset": 2789840,
      "componentType": 5126,
      "count": 1687,
      "max": [
        0.98813897371292114,
        0.99014002084732056
      ],
      "min": [
        0.010010999627411366,
        0.011900999583303928
      ],
      "type": "VEC2"
    },
    {
      "bufferView": 0,
      "byteOffset": 6711828,
      "componentType": 5125,
      "count": 4596,
      "max": [
        1686
      ],
      "min": [
        0
      ],
      "type": "SCALAR"
    },
    {
      "bufferView": 2,
      "byteOffset": 8410008,
      "componentType": 5126,
      "count": 1779,
      "max": [
        23.893699645996094,
        -5.3593897819519043,
        3.9643099308013916
      ],
      "min": [
        -117.39900207519531,
        -73.688003540039062,
        -3.8112599849700928
      ],
      "type": "VEC3"
    },
    {
      "bufferView": 2,
      "byteOffset": 8431356,
      "componentType": 5126,
      "count": 1779,
      "max": [
        0.99991178512573242,
        0.99987179040908813,
        0.99996274709701538
      ],
      "min": [
        -0.99987661838531494,
        -0.99985963106155396,
        -0.99957209825515747
      ],
      "type": "VEC3"
    },
    {
      "bufferView": 1,
      "byteOffset": 2803336,
      "componentType": 5126,
      "count": 1779,
      "max": [
        0.99023401737213135,
        0.99015098810195923
      ],
      "min": [
        0.0097679998725652695,
        0.011753999628126621
      ],
      "type": "VEC2"
    },
    {
      "bufferView": 0,
      "byteOffset": 6730212,
      "componentType": 5125,
      "count": 4086,
      "max": [
        1778
      ],
      "min": [
        0
      ],
      "type": "SCALAR"
    },
    {
      "bufferView": 2,
      "byteOffset": 8452704,
      "componentType": 5126,
      "count": 1750,
      "max": [
        24.227500915527344,
        -4.3934597969055176,
        3.3169600963592529
      ],
      "min": [
        -118.19100189208984,
        -74.687599182128906,
        -3.8106799125671387
      ],
      "type": "VEC3"
    },
    {
      "bufferView": 2,
      "byteOffset": 8473704,
      "componentType": 5126,
      "count": 1750,
      "max": [
        0.99968546628952026,
        0.99983447790145874,
        0.99995625019073486
      ],
      "min": [
        -0.99997538328170776,
        -0.99983334541320801,
        -0.99987989664077759
      ],
      "type": "VEC3"
    },
    {
      "bufferView": 1,
      "byteOffset": 2817568,
      "componentType": 5126,
      "count": 1750,
      "max": [
        0.98801600933074951,
        0.99023401737213135
      ],
      "min": [
        0.0098010003566741943,
        0.011787000112235546
      ],
      "type": "VEC2"
    },
    {
      "bufferView": 0,
      "byteOffset": 6746556,
      "componentType": 5125,
      "count": 3648,
      "max": [
        1749
      ],
      "min": [
        0
      ],
      "type": "SCALAR"
    },
    {
      "bufferView": 2,
      "byteOffset": 8494704,
      "componentType": 5126,
      "count": 748,
      "max": [
        24.221399307250977,
        -5.8933501243591309,
        4.2509198188781738
      ],
      "min": [
        -117.83000183105469,
        -74.768600463867188,
        -3.8199400901794434
      ],
      "type": "VEC3"
    },
    {
      "bufferView": 2,
      "byteOffset": 8503680,
      "componentType": 5126,
      "count": 748,
      "max": [
        0.99965524673461914,
        0.99932324886322021,
        0.99997764825820923
      ],
      "min": [
        -0.99987661838531494,
        -0.99923878908157349,
        -0.99777674674987793
      ],
      "type": "VEC3"
    },
    {
      "bufferView": 1,
      "byteOffset": 2831568,
      "componentType": 5126,
      "count": 748,
      "max": [
        0.98404198884963989,
        0.9882349967956543
      ],
      "min": [
        0.01193500030785799,
        0.015767000615596771
      ],
      "type": "VEC2"
    },
    {
      "bufferView": 0,
      "byteOffset": 6761148,
      "componentType": 5125,
      "count": 1512,
      "max": [
        747
      ],
      "min": [
        0
      ],
      "type": "SCALAR"
    },
    {
      "bufferView": 2,
      "byteOffset": 8512656,
      "componentType": 5126,
      "count": 737,
      "max": [
        22.786800384521484,
        -5.9302201271057129,
        3.1431899070739746
      ],
      "min": [
        -118.20099639892578,
        -74.538101196289062,
        -3.6893200874328613
      ],
      "type": "VEC3"
    },
    {
      "bufferView": 2,
      "byteOffset": 8521500,
      "componentType": 5126,
      "count": 737,
      "max": [
        0.99926173686981201,
        0.99969989061355591,
        0.9999963641166687
      ],
      "min": [
        -0.99920874834060669,
        -0.99957150220870972,
        -0.99935400485992432
      ],
      "type": "VEC3"
    },
    {
      "bufferView": 1,
      "byteOffset": 2837552,
      "componentType": 5126,
      "count": 737,
      "max": [
        0.98386299610137939,
        0.98816698789596558
      ],
      "min": [
        0.011872000060975552,
        0.015977000817656517
      ],
      "type": "VEC2"
    },
    {
      "bufferView": 0,
      "byteOffset": 6767196,
      "componentType": 5125,
      "count": 1347,
      "max": [
        736
      ],
      "min": [
        0
      ],
      "type": "SCALAR"
    },
    {
      "bufferView": 2,
      "byteOffset": 8530344,
      "componentType": 5126,
      "count": 840,
      "max": [
        23.416799545288086,
        -4.0002899169921875,
        3.8773300647735596
      ],
      "min": [
        -116.75499725341797,
        -74.645401000976562,
        -4.3122901916503906
      ],
      "type": "VEC3"
    },
    {
      "bufferView": 2,
      "byteOffset": 8540424,
      "componentType": 5126,
      "count": 840,
      "max": [
        0.99968975782394409,
        0.99859046936035156,
        0.99991744756698608
      ],
      "min": [
        -0.99871814250946045,
        -0.99975723028182983,
        -0.99895888566970825
      ],
      "type": "VEC3"
    },
    {
      "bufferView": 1,
      "byteOffset": 2843448,
      "componentType": 5126,
      "count": 840,
      "max": [
        0.98425000905990601,
        0.98826801776885986
      ],
      "min": [
        0.011909999884665012,
        0.019372999668121338
      ],
      "type": "VEC2"
    },
    {
      "bufferView": 0,
      "byteOffset": 6772584,
      "componentType": 5125,
      "count": 1623,
      "max": [
        839
      ],
      "min": [
        0
      ],
      "type": "SCALAR"
    },
    {
      "bufferView": 2,
      "byteOffset": 8550504,
      "componentType": 5126,
      "count": 745,
      "max": [
        24.225151062011719,
        -4.265009880065918,
        3.4575850963592529
      ],
      "min": [
        -116.76799774169922,
        -74.636299133300781,
        -3.6693599224090576
      ],
      "type": "VEC3"
    },
    {
      "bufferView": 2,
      "byteOffset": 8559444,
      "componentType": 5126,
      "count": 745,
      "max": [
        0.99848252534866333,
        0.99994510412216187,
        0.99992966651916504
      ],
      "min": [
        -0.99727499485015869,
        -0.99819678068161011,
        -0.99995225667953491
      ],
      "type": "VEC3"
    },
    {
      "bufferView": 1,
      "byteOffset": 2850168,
      "componentType": 5126,
      "count": 745,
      "max": [
        0.98279798030853271,
        0.98814600706100464
      ],
      "min": [
        0.011729000136256218,
        0.01629599928855896
      ],
      "type": "VEC2"
    },
    {
      "bufferView": 0,
      "byteOffset": 6779076,
      "componentType": 5125,
      "count": 1122,
      "max": [
        744
      ],
      "min": [
        0
      ],
      "type": "SCALAR"
    },
    {
      "bufferView": 2,
      "byteOffset": 8568384,
      "componentType": 5126,
      "count": 888,
      "max": [
        23.939399719238281,
        -5.7235298156738281,
        3.9035599231719971
      ],
      "min": [
        -116.77799987792969,
        -75.027702331542969,
        -4.2650299072265625
      ],
      "type": "VEC3"
    },
    {
      "bufferView": 2,
      "byteOffset": 8579040,
      "componentType": 5126,
      "count": 888,
      "max": [
        0.9990086555480957,
        0.99967098236083984,
        0.9999614953994751
      ],
      "min": [
        -0.99973064661026001,
        -0.99954599142074585,
        -0.99642074108123779
      ],
      "type": "VEC3"
    },
    {
      "bufferView": 1,
      "byteOffset": 2856128,
      "componentType": 5126,
      "count": 888,
      "max": [
        0.98386001586914062,
        0.98772799968719482
      ],
      "min": [
        0.011842000298202038,
        0.01587199978530407
      ],
      "type": "VEC2"
    },
    {
      "bufferView": 0,
      "byteOffset": 6783564,
      "componentType": 5125,
      "count": 1440,
      "max": [
        887
      ],
      "min": [
        0
      ],
      "type": "SCALAR"
    },
    {
      "bufferView": 2,
      "byteOffset": 8589696,
      "componentType": 5126,
      "count": 945,
      "max": [
        23.414499282836914,
        -5.7932701110839844,
        3.9035599231719971
      ],
      "min": [
        -116.75399780273438,
        -73.81719970703125,
        -3.8106799125671387
      ],
      "type": "VEC3"
    },
    {
      "bufferView": 2,
      "byteOffset": 8601036,
      "componentType": 5126,
      "count": 945,
      "max": [
        0.99933624267578125,
        0.99774837493896484,
        0.99999523162841797
      ],
      "min": [
        -0.99910753965377808,
        -0.99971300363540649,
        -0.99988287687301636
      ],
      "type": "VEC3"
    },
    {
      "bufferView": 1,
      "byteOffset": 2863232,
      "componentType": 5126,
      "count": 945,
      "max": [
        0.9882810115814209,
        0.98827201128005981
      ],
      "min": [
        0.011896999552845955,
        0.015785999596118927
      ],
      "type": "VEC2"
    },
    {
      "bufferView": 0,
      "byteOffset": 6789324,
      "componentType": 5125,
      "count": 1374,
      "max": [
        944
      ],
      "min": [
        0
      ],
      "type": "SCALAR"
    },
    {
      "bufferView": 2,
      "byteOffset": 8612376,
      "componentType": 5126,
      "count": 993,
      "max": [
        23.425199508666992,
        -5.5023899078369141,
        3.6760299205780029
      ],
      "min": [
        -117.31800079345703,
        -74.704200744628906,
        -3.8195700645446777
      ],
      "type": "VEC3"
    },
    {
      "bufferView": 2,
      "byteOffset": 8624292,
      "componentType": 5126,
      "count": 993,
      "max": [
        0.99844557046890259,
        0.99921548366546631,
        0.99993902444839478
      ],
      "min": [
        -0.99994897842407227,
        -0.99948650598526001,
        -0.99939137697219849
      ],
      "type": "VEC3"
    },
    {
      "bufferView": 1,
      "byteOffset": 2870792,
      "componentType": 5126,
      "count": 993,
      "max": [
        0.98396897315979004,
        0.98826897144317627
      ],
      "min": [
        0.011819000355899334,
        0.01996999979019165
      ],
      "type": "VEC2"
    },
    {
      "bufferView": 0,
      "byteOffset": 6794820,
      "componentType": 5125,
      "count": 1524,
      "max": [
        992
      ],
      "min": [
        0
      ],
      "type": "SCALAR"
    },
    {
      "bufferView": 2,
      "byteOffset": 8636208,
      "componentType": 5126,
      "count": 1076,
      "max": [
        23.278600692749023,
        -5.8709201812744141,
        3.5266599655151367
      ],
      "min": [
        -117.60199737548828,
        -74.645401000976562,
        -3.7959299087524414
      ],
      "type": "VEC3"
    },
    {
      "bufferView": 2,
      "byteOffset": 8649120,
      "componentType": 5126,
      "count": 1076,
      "max": [
        0.99988877773284912,
        0.99920600652694702,
        0.99992936849594116
      ],
      "min": [
        -0.99920874834060669,
        -0.99952447414398193,
        -0.99442249536514282
      ],
      "type": "VEC3"
    },
    {
      "bufferView": 1,
      "byteOffset": 2878736,
      "componentType": 5126,
      "count": 1076,
      "max": [
        0.98363602161407471,
        0.98820900917053223
      ],
      "min": [
        0.01179600041359663,
        0.014379000291228294
      ],
      "type": "VEC2"
    },
    {
      "bufferView": 0,
      "byteOffset": 6800916,
      "componentType": 5125,
      "count": 1383,
      "max": [
        1075
      ],
      "min": [
        0
      ],
      "type": "SCALAR"
    },
    {
      "bufferView": 2,
      "byteOffset": 8662032,
      "componentType": 5126,
      "count": 1265,
      "max": [
        23.779300689697266,
        -4.1928400993347168,
        4.1283102035522461
      ],
      "min": [
        -118.19899749755859,
        -74.710601806640625,
        -3.8109800815582275
      ],
      "type": "VEC3"
    },
    {
      "bufferView": 2,
      "byteOffset": 8677212,
      "componentType": 5126,
      "count": 1265,
      "max": [
        0.99961048364639282,
        0.99927377700805664,
        0.99998438358306885
      ],
      "min": [
        -0.99841189384460449,
        -0.99962186813354492,
        -0.99895888566970825
      ],
      "type": "VEC3"
    },
    {
      "bufferView": 1,
      "byteOffset": 2887344,
      "componentType": 5126,
      "count": 1265,
      "max": [
        0.9882810115814209,
        0.98797297477722168
      ],
      "min": [
        0.011795000173151493,
        0.015876999124884605
      ],
      "type": "VEC2"
    },
    {
      "bufferView": 0,
      "byteOffset": 6806448,
      "componentType": 5125,
      "count": 1452,
      "max": [
        1264
      ],
      "min": [
        0
      ],
      "type": "SCALAR"
    }
  ],
  "asset": {
    "extras": {
      "author": "Chris Heinrich (https://sketchfab.com/cpheinrich)",
      "license": "CC-BY-4.0 (http://creativecommons.org/licenses/by/4.0/)",
      "source": "https://sketchfab.com/3d-models/pasadena-auditorium-massive-ipad-lidar-capture-942c58e383b54c5f964e1cafdcf6e889",
      "title": "Pasadena auditorium - massive iPad LiDAR capture"
    },
    "generator": "Sketchfab-9.59.0",
    "version": "2.0"
  },
  "bufferViews": [
    {
      "buffer": 0,
      "byteLength": 6812256,
      "byteOffset": 0,
      "name": "floatBufferViews",
      "target": 34963
    },
    {
      "buffer": 0,
      "byteLength": 2897464,
      "byteOffset": 6812256,
      "byteStride": 8,
      "name": "floatBufferViews",
      "target": 34962
    },
    {
      "buffer": 0,
      "byteLength": 8692392,
      "byteOffset": 9709720,
      "byteStride": 12,
      "name": "floatBufferViews",
      "target": 34962
    }
  ],
  "buffers": [
    {
      "byteLength": 18402112,
      "uri": "scene.bin"
    }
  ],
  "extensionsUsed": [
    "KHR_materials_unlit"
  ],
  "images": [
    {
      "uri": "textures/material0000_baseColor.jpeg"
    },
    {
      "uri": "textures/material0001_baseColor.jpeg"
    },
    {
      "uri": "textures/material0002_baseColor.jpeg"
    },
    {
      "uri": "textures/material0003_baseColor.jpeg"
    },
    {
      "uri": "textures/material0004_baseColor.jpeg"
    },
    {
      "uri": "textures/material0005_baseColor.jpeg"
    },
    {
      "uri": "textures/material0006_baseColor.jpeg"
    },
    {
      "uri": "textures/material0007_baseColor.jpeg"
    },
    {
      "uri": "textures/material0008_baseColor.jpeg"
    },
    {
      "uri": "textures/material0009_baseColor.jpeg"
    },
    {
      "uri": "textures/material0010_baseColor.jpeg"
    },
    {
      "uri": "textures/material0011_baseColor.jpeg"
    },
    {
      "uri": "textures/material0012_baseColor.jpeg"
    },
    {
      "uri": "textures/material0013_baseColor.jpeg"
    },
    {
      "uri": "textures/material0014_baseColor.jpeg"
    },
    {
      "uri": "textures/material0015_baseColor.jpeg"
    },
    {
      "uri": "textures/material0016_baseColor.jpeg"
    },
    {
      "uri": "textures/material0017_baseColor.jpeg"
    },
    {
      "uri": "textures/material0018_baseColor.jpeg"
    },
    {
      "uri": "textures/material0019_baseColor.jpeg"
    },
    {
      "uri": "textures/material0020_baseColor.jpeg"
    },
    {
      "uri": "textures/material0021_baseColor.jpeg"
    },
    {
      "uri": "textures/material0022_baseColor.jpeg"
    },
    {
      "uri": "textures/material0023_baseColor.jpeg"
    },
    {
      "uri": "textures/material0024_baseColor.jpeg"
    },
    {
      "uri": "textures/material0025_baseColor.jpeg"
    },
    {
      "uri": "textures/material0026_baseColor.jpeg"
    },
    {
      "uri": "textures/material0027_baseColor.jpeg"
    },
    {
      "uri": "textures/material0028_baseColor.jpeg"
    },
    {
      "uri": "textures/material0029_baseColor.jpeg"
    }
  ],
  "materials": [
    {
      "doubleSided": true,
      "emissiveFactor": [
        0,
        0,
        0
      ],
      "extensions": {
        "KHR_materials_unlit": {}
      },
      "name": "material0000",
      "pbrMetallicRoughness": {
        "baseColorFactor": [
          1,
          1,
          1,
          1
        ],
        "baseColorTexture": {
          "index": 0,
          "texCoord": 0
        },
        "metallicFactor": 0,
        "roughnessFactor": 1
      }
    },
    {
      "doubleSided": true,
      "emissiveFactor": [
        0,
        0,
        0
      ],
      "extensions": {
        "KHR_materials_unlit": {}
      },
      "name": "material0001",
      "pbrMetallicRoughness": {
        "baseColorFactor": [
          1,
          1,
          1,
          1
        ],
        "baseColorTexture": {
          "index": 1,
          "texCoord": 0
        },
        "metallicFactor": 0,
        "roughnessFactor": 1
      }
    },
    {
      "doubleSided": true,
      "emissiveFactor": [
        0,
        0,
        0
      ],
      "extensions": {
        "KHR_materials_unlit": {}
      },
      "name": "material0002",
      "pbrMetallicRoughness": {
        "baseColorFactor": [
          1,
          1,
          1,
          1
        ],
        "baseColorTexture": {
          "index": 2,
          "texCoord": 0
        },
        "metallicFactor": 0,
        "roughnessFactor": 1
      }
    },
    {
      "doubleSided": true,
      "emissiveFactor": [
        0,
        0,
        0
      ],
      "extensions": {
        "KHR_materials_unlit": {}
      },
      "name": "material0003",
      "pbrMetallicRoughness": {
        "baseColorFactor": [
          1,
          1,
          1,
          1
        ],
        "baseColorTexture": {
          "index": 3,
          "texCoord": 0
        },
        "metallicFactor": 0,
        "roughnessFactor": 1
      }
    },
    {
      "doubleSided": true,
      "emissiveFactor": [
        0,
        0,
        0
      ],
      "extensions": {
        "KHR_materials_unlit": {}
      },
      "name": "material0004",
      "pbrMetallicRoughness": {
        "baseColorFactor": [
          1,
          1,
          1,
          1
        ],
        "baseColorTexture": {
          "index": 4,
          "texCoord": 0
        },
        "metallicFactor": 0,
        "roughnessFactor": 1
      }
    },
    {
      "doubleSided": true,
      "emissiveFactor": [
        0,
        0,
        0
      ],
      "extensions": {
        "KHR_materials_unlit": {}
      },
      "name": "material0005",
      "pbrMetallicRoughness": {
        "baseColorFactor": [
          1,
          1,
          1,
          1
        ],
        "baseColorTexture": {
          "index": 5,
          "texCoord": 0
        },
        "metallicFactor": 0,
        "roughnessFactor": 1
      }
    },
    {
      "doubleSided": true,
      "emissiveFactor": [
        0,
        0,
        0
      ],
      "extensions": {
        "KHR_materials_unlit": {}
      },
      "name": "material0006",
      "pbrMetallicRoughness": {
        "baseColorFactor": [
          1,
          1,
          1,
          1
        ],
        "baseColorTexture": {
          "index": 6,
          "texCoord": 0
        },
        "metallicFactor": 0,
        "roughnessFactor": 1
      }
    },
    {
      "doubleSided": true,
      "emissiveFactor": [
        0,
        0,
        0
      ],
      "extensions": {
        "KHR_materials_unlit": {}
      },
      "name": "material0007",
      "pbrMetallicRoughness": {
        "baseColorFactor": [
          1,
          1,
          1,
          1
        ],
        "baseColorTexture": {
          "index": 7,
          "texCoord": 0
        },
        "metallicFactor": 0,
        "roughnessFactor": 1
      }
    },
    {
      "doubleSided": true,
      "emissiveFactor": [
        0,
        0,
        0
      ],
      "extensions": {
        "KHR_materials_unlit": {}
      },
      "name": "material0008",
      "pbrMetallicRoughness": {
        "baseColorFactor": [
          1,
          1,
          1,
          1
        ],
        "baseColorTexture": {
          "index": 8,
          "texCoord": 0
        },
        "metallicFactor": 0,
        "roughnessFactor": 1
      }
    },
    {
      "doubleSided": true,
      "emissiveFactor": [
        0,
        0,
        0
      ],
      "extensions": {
        "KHR_materials_unlit": {}
      },
      "name": "material0009",
      "pbrMetallicRoughness": {
        "baseColorFactor": [
          1,
          1,
          1,
          1
        ],
        "baseColorTexture": {
          "index": 9,
          "texCoord": 0
        },
        "metallicFactor": 0,
        "roughnessFactor": 1
      }
    },
    {
      "doubleSided": true,
      "emissiveFactor": [
        0,
        0,
        0
      ],
      "extensions": {
        "KHR_materials_unlit": {}
      },
      "name": "material0010",
      "pbrMetallicRoughness": {
        "baseColorFactor": [
          1,
          1,
          1,
          1
        ],
        "baseColorTexture": {
          "index": 10,
          "texCoord": 0
        },
        "metallicFactor": 0,
        "roughnessFactor": 1
      }
    },
    {
      "doubleSided": true,
      "emissiveFactor": [
        0,
        0,
        0
      ],
      "extensions": {
        "KHR_materials_unlit": {}
      },
      "name": "material0011",
      "pbrMetallicRoughness": {
        "baseColorFactor": [
          1,
          1,
          1,
          1
        ],
        "baseColorTexture": {
          "index": 11,
          "texCoord": 0
        },
        "metallicFactor": 0,
        "roughnessFactor": 1
      }
    },
    {
      "doubleSided": true,
      "emissiveFactor": [
        0,
        0,
        0
      ],
      "extensions": {
        "KHR_materials_unlit": {}
      },
      "name": "material0012",
      "pbrMetallicRoughness": {
        "baseColorFactor": [
          1,
          1,
          1,
          1
        ],
        "baseColorTexture": {
          "index": 12,
          "texCoord": 0
        },
        "metallicFactor": 0,
        "roughnessFactor": 1
      }
    },
    {
      "doubleSided": true,
      "emissiveFactor": [
        0,
        0,
        0
      ],
      "extensions": {
        "KHR_materials_unlit": {}
      },
      "name": "material0013",
      "pbrMetallicRoughness": {
        "baseColorFactor": [
          1,
          1,
          1,
          1
        ],
        "baseColorTexture": {
          "index": 13,
          "texCoord": 0
        },
        "metallicFactor": 0,
        "roughnessFactor": 1
      }
    },
    {
      "doubleSided": true,
      "emissiveFactor": [
        0,
        0,
        0
      ],
      "extensions": {
        "KHR_materials_unlit": {}
      },
      "name": "material0014",
      "pbrMetallicRoughness": {
        "baseColorFactor": [
          1,
          1,
          1,
          1
        ],
        "baseColorTexture": {
          "index": 14,
          "texCoord": 0
        },
        "metallicFactor": 0,
        "roughnessFactor": 1
      }
    },
    {
      "doubleSided": true,
      "emissiveFactor": [
        0,
        0,
        0
      ],
      "extensions": {
        "KHR_materials_unlit": {}
      },
      "name": "material0015",
      "pbrMetallicRoughness": {
        "baseColorFactor": [
          1,
          1,
          1,
          1
        ],
        "baseColorTexture": {
          "index": 15,
          "texCoord": 0
        },
        "metallicFactor": 0,
        "roughnessFactor": 1
      }
    },
    {
      "doubleSided": true,
      "emissiveFactor": [
        0,
        0,
        0
      ],
      "extensions": {
        "KHR_materials_unlit": {}
      },
      "name": "material0016",
      "pbrMetallicRoughness": {
        "baseColorFactor": [
          1,
          1,
          1,
          1
        ],
        "baseColorTexture": {
          "index": 16,
          "texCoord": 0
        },
        "metallicFactor": 0,
        "roughnessFactor": 1
      }
    },
    {
      "doubleSided": true,
      "emissiveFactor": [
        0,
        0,
        0
      ],
      "extensions": {
        "KHR_materials_unlit": {}
      },
      "name": "material0017",
      "pbrMetallicRoughness": {
        "baseColorFactor": [
          1,
          1,
          1,
          1
        ],
        "baseColorTexture": {
          "index": 17,
          "texCoord": 0
        },
        "metallicFactor": 0,
        "roughnessFactor": 1
      }
    },
    {
      "doubleSided": true,
      "emissiveFactor": [
        0,
        0,
        0
      ],
      "extensions": {
        "KHR_materials_unlit": {}
      },
      "name": "material0018",
      "pbrMetallicRoughness": {
        "baseColorFactor": [
          1,
          1,
          1,
          1
        ],
        "baseColorTexture": {
          "index": 18,
          "texCoord": 0
        },
        "metallicFactor": 0,
        "roughnessFactor": 1
      }
    },
    {
      "doubleSided": true,
      "emissiveFactor": [
        0,
        0,
        0
      ],
      "extensions": {
        "KHR_materials_unlit": {}
      },
      "name": "material0019",
      "pbrMetallicRoughness": {
        "baseColorFactor": [
          1,
          1,
          1,
          1
        ],
        "baseColorTexture": {
          "index": 19,
          "texCoord": 0
        },
        "metallicFactor": 0,
        "roughnessFactor": 1
      }
    },
    {
      "doubleSided": true,
      "emissiveFactor": [
        0,
        0,
        0
      ],
      "extensions": {
        "KHR_materials_unlit": {}
      },
      "name": "material0020",
      "pbrMetallicRoughness": {
        "baseColorFactor": [
          1,
          1,
          1,
          1
        ],
        "baseColorTexture": {
          "index": 20,
          "texCoord": 0
        },
        "metallicFactor": 0,
        "roughnessFactor": 1
      }
    },
    {
      "doubleSided": true,
      "emissiveFactor": [
        0,
        0,
        0
      ],
      "extensions": {
        "KHR_materials_unlit": {}
      },
      "name": "material0021",
      "pbrMetallicRoughness": {
        "baseColorFactor": [
          1,
          1,
          1,
          1
        ],
        "baseColorTexture": {
          "index": 21,
          "texCoord": 0
        },
        "metallicFactor": 0,
        "roughnessFactor": 1
      }
    },
    {
      "doubleSided": true,
      "emissiveFactor": [
        0,
        0,
        0
      ],
      "extensions": {
        "KHR_materials_unlit": {}
      },
      "name": "material0022",
      "pbrMetallicRoughness": {
        "baseColorFactor": [
          1,
          1,
          1,
          1
        ],
        "baseColorTexture": {
          "index": 22,
          "texCoord": 0
        },
        "metallicFactor": 0,
        "roughnessFactor": 1
      }
    },
    {
      "doubleSided": true,
      "emissiveFactor": [
        0,
        0,
        0
      ],
      "extensions": {
        "KHR_materials_unlit": {}
      },
      "name": "material0023",
      "pbrMetallicRoughness": {
        "baseColorFactor": [
          1,
          1,
          1,
          1
        ],
        "baseColorTexture": {
          "index": 23,
          "texCoord": 0
        },
        "metallicFactor": 0,
        "roughnessFactor": 1
      }
    },
    {
      "doubleSided": true,
      "emissiveFactor": [
        0,
        0,
        0
      ],
      "extensions": {
        "KHR_materials_unlit": {}
      },
      "name": "material0024",
      "pbrMetallicRoughness": {
        "baseColorFactor": [
          1,
          1,
          1,
          1
        ],
        "baseColorTexture": {
          "index": 24,
          "texCoord": 0
        },
        "metallicFactor": 0,
        "roughnessFactor": 1
      }
    },
    {
      "doubleSided": true,
      "emissiveFactor": [
        0,
        0,
        0
      ],
      "extensions": {
        "KHR_materials_unlit": {}
      },
      "name": "material0025",
      "pbrMetallicRoughness": {
        "baseColorFactor": [
          1,
          1,
          1,
          1
        ],
        "baseColorTexture": {
          "index": 25,
          "texCoord": 0
        },
        "metallicFactor": 0,
        "roughnessFactor": 1
      }
    },
    {
      "doubleSided": true,
      "emissiveFactor": [
        0,
        0,
        0
      ],
      "extensions": {
        "KHR_materials_unlit": {}
      },
      "name": "material0026",
      "pbrMetallicRoughness": {
        "baseColorFactor": [
          1,
          1,
          1,
          1
        ],
        "baseColorTexture": {
          "index": 26,
          "texCoord": 0
        },
        "metallicFactor": 0,
        "roughnessFactor": 1
      }
    },
    {
      "doubleSided": true,
      "emissiveFactor": [
        0,
        0,
        0
      ],
      "extensions": {
        "KHR_materials_unlit": {}
      },
      "name": "material0027",
      "pbrMetallicRoughness": {
        "baseColorFactor": [
          1,
          1,
          1,
          1
        ],
        "baseColorTexture": {
          "index": 27,
          "texCoord": 0
        },
        "metallicFactor": 0,
        "roughnessFactor": 1
      }
    },
    {
      "doubleSided": true,
      "emissiveFactor": [
        0,
        0,
        0
      ],
      "extensions": {
        "KHR_materials_unlit": {}
      },
      "name": "material0028",
      "pbrMetallicRoughness": {
        "baseColorFactor": [
          1,
          1,
          1,
          1
        ],
        "baseColorTexture": {
          "index": 28,
          "texCoord": 0
        },
        "metallicFactor": 0,
        "roughnessFactor": 1
      }
    },
    {
      "doubleSided": true,
      "emissiveFactor": [
        0,
        0,
        0
      ],
      "extensions": {
        "KHR_materials_unlit": {}
      },
      "name": "material0029",
      "pbrMetallicRoughness": {
        "baseColorFactor": [
          1,
          1,
          1,
          1
        ],
        "baseColorTexture": {
          "index": 29,
          "texCoord": 0
        },
        "metallicFactor": 0,
        "roughnessFactor": 1
      }
    }
  ],
  "meshes": [
    {
      "primitives": [
        {
          "attributes": {
            "NORMAL": 1,
            "POSITION": 0,
            "TEXCOORD_0": 2
          },
          "indices": 3,
          "material": 0,
          "mode": 4
        }
      ]
    },
    {
      "primitives": [
        {
          "attributes": {
            "NORMAL": 5,
            "POSITION": 4,
            "TEXCOORD_0": 6
          },
          "indices": 7,
          "material": 1,
          "mode": 4
        }
      ]
    },
    {
      "primitives": [
        {
          "attributes": {
            "NORMAL": 9,
            "POSITION": 8,
            "TEXCOORD_0": 10
          },
          "indices": 11,
          "material": 2,
          "mode": 4
        }
      ]
    },
    {
      "primitives": [
        {
          "attributes": {
            "NORMAL": 13,
            "POSITION": 12,
            "TEXCOORD_0": 14
          },
          "indices": 15,
          "material": 3,
          "mode": 4
        }
      ]
    },
    {
      "primitives": [
        {
          "attributes": {
            "NORMAL": 17,
            "POSITION": 16,
            "TEXCOORD_0": 18
          },
          "indices": 19,
          "material": 4,
          "mode": 4
        }
      ]
    },
    {
      "primitives": [
        {
          "attributes": {
            "NORMAL": 21,
            "POSITION": 20,
            "TEXCOORD_0": 22
          },
          "indices": 23,
          "material": 5,
          "mode": 4
        }
      ]
    },
    {
      "primitives": [
        {
          "attributes": {
            "NORMAL": 25,
            "POSITION": 24,
            "TEXCOORD_0": 26
          },
          "indices": 27,
          "material": 6,
          "mode": 4
        }
      ]
    },
    {
      "primitives": [
        {
          "attributes": {
            "NORMAL": 29,
            "POSITION": 28,
            "TEXCOORD_0": 30
          },
          "indices": 31,
          "material": 7,
          "mode": 4
        }
      ]
    },
    {
      "primitives": [
        {
          "attributes": {
            "NORMAL": 33,
            "POSITION": 32,
            "TEXCOORD_0": 34
          },
          "indices": 35,
          "material": 8,
          "mode": 4
        }
      ]
    },
    {
      "primitives": [
        {
          "attributes": {
            "NORMAL": 37,
            "POSITION": 36,
            "TEXCOORD_0": 38
          },
          "indices": 39,
          "material": 9,
          "mode": 4
        }
      ]
    },
    {
      "primitives": [
        {
          "attributes": {
            "NORMAL": 41,
            "POSITION": 40,
            "TEXCOORD_0": 42
          },
          "indices": 43,
          "material": 10,
          "mode": 4
        }
      ]
    },
    {
      "primitives": [
        {
          "attributes": {
            "NORMAL": 45,
            "POSITION": 44,
            "TEXCOORD_0": 46
          },
          "indices": 47,
          "material": 11,
          "mode": 4
        }
      ]
    },
    {
      "primitives": [
        {
          "attributes": {
            "NORMAL": 49,
            "POSITION": 48,
            "TEXCOORD_0": 50
          },
          "indices": 51,
          "material": 12,
          "mode": 4
        }
      ]
    },
    {
      "primitives": [
        {
          "attributes": {
            "NORMAL": 53,
            "POSITION": 52,
            "TEXCOORD_0": 54
          },
          "indices": 55,
          "material": 13,
          "mode": 4
        }
      ]
    },
    {
      "primitives": [
        {
          "attributes": {
            "NORMAL": 57,
            "POSITION": 56,
            "TEXCOORD_0": 58
          },
          "indices": 59,
          "material": 14,
          "mode": 4
        }
      ]
    },
    {
      "primitives": [
        {
          "attributes": {
            "NORMAL": 61,
            "POSITION": 60,
            "TEXCOORD_0": 62
          },
          "indices": 63,
          "material": 15,
          "mode": 4
        }
      ]
    },
    {
      "primitives": [
        {
          "attributes": {
            "NORMAL": 65,
            "POSITION": 64,
            "TEXCOORD_0": 66
          },
          "indices": 67,
          "material": 16,
          "mode": 4
        }
      ]
    },
    {
      "primitives": [
        {
          "attributes": {
            "NORMAL": 69,
            "POSITION": 68,
            "TEXCOORD_0": 70
          },
          "indices": 71,
          "material": 17,
          "mode": 4
        }
      ]
    },
    {
      "primitives": [
        {
          "attributes": {
            "NORMAL": 73,
            "POSITION": 72,
            "TEXCOORD_0": 74
          },
          "indices": 75,
          "material": 18,
          "mode": 4
        }
      ]
    },
    {
      "primitives": [
        {
          "attributes": {
            "NORMAL": 77,
            "POSITION": 76,
            "TEXCOORD_0": 78
          },
          "indices": 79,
          "material": 19,
          "mode": 4
        }
      ]
    },
    {
      "primitives": [
        {
          "attributes": {
            "NORMAL": 81,
            "POSITION": 80,
            "TEXCOORD_0": 82
          },
          "indices": 83,
          "material": 20,
          "mode": 4
        }
      ]
    },
    {
      "primitives": [
        {
          "attributes": {
            "NORMAL": 85,
            "POSITION": 84,
            "TEXCOORD_0": 86
          },
          "indices": 87,
          "material": 21,
          "mode": 4
        }
      ]
    },
    {
      "primitives": [
        {
          "attributes": {
            "NORMAL": 89,
            "POSITION": 88,
            "TEXCOORD_0": 90
          },
          "indices": 91,
          "material": 22,
          "mode": 4
        }
      ]
    },
    {
      "primitives": [
        {
          "attributes": {
            "NORMAL": 93,
            "POSITION": 92,
            "TEXCOORD_0": 94
          },
          "indices": 95,
          "material": 23,
          "mode": 4
        }
      ]
    },
    {
      "primitives": [
        {
          "attributes": {
            "NORMAL": 97,
            "POSITION": 96,
            "TEXCOORD_0": 98
          },
          "indices": 99,
          "material": 24,
          "mode": 4
        }
      ]
    },
    {
      "primitives": [
        {
          "attributes": {
            "NORMAL": 101,
            "POSITION": 100,
            "TEXCOORD_0": 102
          },
          "indices": 103,
          "material": 25,
          "mode": 4
        }
      ]
    },
    {
      "primitives": [
        {
          "attributes": {
            "NORMAL": 105,
            "POSITION": 104,
            "TEXCOORD_0": 106
          },
          "indices": 107,
          "material": 26,
          "mode": 4
        }
      ]
    },
    {
      "primitives": [
        {
          "attributes": {
            "NORMAL": 109,
            "POSITION": 108,
            "TEXCOORD_0": 110
          },
          "indices": 111,
          "material": 27,
          "mode": 4
        }
      ]
    },
    {
      "primitives": [
        {
          "attributes": {
            "NORMAL": 113,
            "POSITION": 112,
            "TEXCOORD_0": 114
          },
          "indices": 115,
          "material": 28,
          "mode": 4
        }
      ]
    },
    {
      "primitives": [
        {
          "attributes": {
            "NORMAL": 117,
            "POSITION": 116,
            "TEXCOORD_0": 118
          },
          "indices": 119,
          "material": 29,
          "mode": 4
        }
      ]
    }
  ],
  "nodes": [
    {
      "children": [
        1
      ],
      "name": "RootNode (gltf orientation matrix)",
      "rotation": [
        -0.70710678118654746,
        -0,
        -0,
        0.70710678118654757
      ]
    },
    {
      "children": [
        2
      ],
      "name": "RootNode (model correction matrix)"
    },
    {
      "children": [
        3,
        4,
        5,
        6,
        7,
        8,
        9,
        10,
        11,
        12,
        13,
        14,
        15,
        16,
        17,
        18,
        19,
        20,
        21,
        22,
        23,
        24,
        25,
        26,
        27,
        28,
        29,
        30,
        31,
        32
      ],
      "name": "textured.obj.cleaner.materialmerger.gles"
    },
    {
      "mesh": 0,
      "name": ""
    },
    {
      "mesh": 1,
      "name": ""
    },
    {
      "mesh": 2,
      "name": ""
    },
    {
      "mesh": 3,
      "name": ""
    },
    {
      "mesh": 4,
      "name": ""
    },
    {
      "mesh": 5,
      "name": ""
    },
    {
      "mesh": 6,
      "name": ""
    },
    {
      "mesh": 7,
      "name": ""
    },
    {
      "mesh": 8,
      "name": ""
    },
    {
      "mesh": 9,
      "name": ""
    },
    {
      "mesh": 10,
      "name": ""
    },
    {
      "mesh": 11,
      "name": ""
    },
    {
      "mesh": 12,
      "name": ""
    },
    {
      "mesh": 13,
      "name": ""
    },
    {
      "mesh": 14,
      "name": ""
    },
    {
      "mesh": 15,
      "name": ""
    },
    {
      "mesh": 16,
      "name": ""
    },
    {
      "mesh": 17,
      "name": ""
    },
    {
      "mesh": 18,
      "name": ""
    },
    {
      "mesh": 19,
      "name": ""
    },
    {
      "mesh": 20,
      "name": ""
    },
    {
      "mesh": 21,
      "name": ""
    },
    {
      "mesh": 22,
      "name": ""
    },
    {
      "mesh": 23,
      "name": ""
    },
    {
      "mesh": 24,
      "name": ""
    },
    {
      "mesh": 25,
      "name": ""
    },
    {
      "mesh": 26,
      "name": ""
    },
    {
      "mesh": 27,
      "name": ""
    },
    {
      "mesh": 28,
      "name": ""
    },
    {
      "mesh": 29,
      "name": ""
    }
  ],
  "samplers": [
    {
      "magFilter": 9729,
      "minFilter": 9987,
      "wrapS": 10497,
      "wrapT": 10497
    }
  ],
  "scene": 0,
  "scenes": [
    {
      "name": "OSG_Scene",
      "nodes": [
        0
      ]
    }
  ],
  "textures": [
    {
      "sampler": 0,
      "source": 0
    },
    {
      "sampler": 0,
      "source": 1
    },
    {
      "sampler": 0,
      "source": 2
    },
    {
      "sampler": 0,
      "source": 3
    },
    {
      "sampler": 0,
      "source": 4
    },
    {
      "sampler": 0,
      "source": 5
    },
    {
      "sampler": 0,
      "source": 6
    },
    {
      "sampler": 0,
      "source": 7
    },
    {
      "sampler": 0,
      "source": 8
    },
    {
      "sampler": 0,
      "source": 9
    },
    {
      "sampler": 0,
      "source": 10
    },
    {
      "sampler": 0,
      "source": 11
    },
    {
      "sampler": 0,
      "source": 12
    },
    {
      "sampler": 0,
      "source": 13
    },
    {
      "sampler": 0,
      "source": 14
    },
    {
      "sampler": 0,
      "source": 15
    },
    {
      "sampler": 0,
      "source": 16
    },
    {
      "sampler": 0,
      "source": 17
    },
    {
      "sampler": 0,
      "source": 18
    },
    {
      "sampler": 0,
      "source": 19
    },
    {
      "sampler": 0,
      "source": 20
    },
    {
      "sampler": 0,
      "source": 21
    },
    {
      "sampler": 0,
      "source": 22
    },
    {
      "sampler": 0,
      "source": 23
    },
    {
      "sampler": 0,
      "source": 24
    },
    {
      "sampler": 0,
      "source": 25
    },
    {
      "sampler": 0,
      "source": 26
    },
    {
      "sampler": 0,
      "source": 27
    },
    {
      "sampler": 0,
      "source": 28
    },
    {
      "sampler": 0,
      "source": 29
    }
  ]
}

